{
  "amount": {
    "names": ["1", "2", "3", "4", "5"],
    "values": ["1", "2", "3", "4", "5"]
  },
  "category": {
    "names": [
      "General Knowledge",
      "Entertainment: Books",
      "Entertainment: Film",
      "Entertainment: Music",
      "Entertainment: Musicals & Theatres",
      "Entertainment: Television",
      "Entertainment: Video Games",
      "Entertainment: Board Games",
      "Science & Nature",
      "Science: Computers",
      "Science: Mathematics",
      "Mythology",
      "Sports",
      "Geography",
      "History",
      "Politics",
      "Art",
      "Celebrities",
      "Animals",
      "Vehicles",
      "Entertainment: Comics",
      "Science: Gadgets",
      "Entertainment: Japanese Anime & Manga",
      "Entertainment: Cartoon & Animations"
    ],
    "values": [
      "9",
      "10",
      "11",
      "12",
      "13",
      "14",
      "15",
      "16",
      "17",
      "18",
      "19",
      "20",
      "21",
      "22",
      "23",
      "24",
      "25",
      "26",
      "27",
      "28",
      "29",
      "30",
      "31",
      "32"
    ]
  },
  "difficulty": {
    "names": ["Easy", "Medium", "Hard"],
    "values": ["easy", "medium", "hard"]
  },
  "type": {
    "names": ["Multiple Choice", "True / False"],
    "values": ["multiple", "boolean"]
  }
}
